Chapter 3 Creating Dataframes | 📊 TJ RS1 with R
…
The comma is very important. Let’s look at some examples:

#Returns all of column 2:
periodic_table[2]

## # A tibble: 118 × 1
##    symbol
##    <chr> 
##  1 H     
##  2 He    
##  3 Li    
##  4 Be    
##  5 B     
##  6 C     
##  7 N     
##  8 O     
##  9 F     
## 10 Ne    
## # … with 108 more rows
…
## # A tibble: 1 × 22
##   atomic_number symbol name   name_origin         group period block state_at_stp occurrence description
##           <dbl> <chr>  <chr>  <chr>               <dbl>  <dbl> <chr> <chr>        <chr>      <chr>      
## 1             2 He     Helium the Greek helios, …    18      1 s     Gas          Primordial Noble gas  
## # … with 12 more variables: atomic_weight <dbl>, aw_uncertainty <dbl>, any_stable_nuclides <chr>,
## #   density <dbl>, density_predicted <lgl>, melting_point <dbl>, mp_predicted <lgl>,
## #   boiling_point <dbl>, bp_predicted <lgl>, heat_capacity <dbl>, electronegativity <dbl>,
## #   abundance <dbl>

#Returns all of column 2:
periodic_table[ ,2]

## # A tibble: 118 × 1
##    symbol
##    <chr> 
##  1 H     
##  2 He    
##  3 Li    
##  4 Be    
##  5 B     
##  6 C     
##  7 N     
##  8 O     
##  9 F     
## 10 Ne    
## # … with 108 more rows
…
