Chapter 3 Intro to ANOVA Analysis | R Guides
…
In order for R to process the data, I need to convert the data from “wide” format to “long” format. I also need to let R know that each species should be treated as a “factor,” which means that it is a type of categorical variable (so I can sort out data based on Species) later on.

Flowers_long<- gather(Flowers, "Species", "Length", factor_key= TRUE)
Flowers_long

## # A tibble: 69 × 2
##    Species  Length
##    <fct>     <dbl>
##  1 H. bihai   47.1
##  2 H. bihai   46.8
##  3 H. bihai   46.8
##  4 H. bihai   47.1
##  5 H. bihai   46.7
##  6 H. bihai   47.4
##  7 H. bihai   46.4
##  8 H. bihai   46.6
##  9 H. bihai   48.1
## 10 H. bihai   48.3
## # … with 59 more rows
…
