Chapter 4 🤔 Selecting Data Using Logical Conditions | 📊 TJ RS1 with R
…
#Prints any row whose state at standard room temperature is not Solid.
periodic_table[periodic_table$state_at_stp != "Solid",]

## # A tibble: 28 × 22
##    atomic_number symbol name     name_origin       group period block
##            <dbl> <chr>  <chr>    <chr>             <dbl>  <dbl> <chr>
##  1             1 H      Hydrogen composed of the …     1      1 s    
##  2             2 He     Helium   the Greek helios…    18      1 s    
##  3             7 N      Nitrogen the Greek nitron…    15      2 p    
##  4             8 O      Oxygen   from the Greek o…    16      2 p    
##  5             9 F      Fluorine the Latin fluere…    17      2 p    
##  6            10 Ne     Neon     the Greek neos, …    18      2 p    
##  7            17 Cl     Chlorine the Greek chloro…    17      3 p    
##  8            18 Ar     Argon    the Greek argos,…    18      3 p    
##  9            35 Br     Bromine  the Greek bromos…    17      4 p    
## 10            36 Kr     Krypton  the Greek krypto…    18      4 p    
## # … with 18 more rows, and 15 more variables: state_at_stp <chr>,
## #   occurrence <chr>, description <chr>, atomic_weight <dbl>,
## #   aw_uncertainty <dbl>, any_stable_nuclides <chr>, density <dbl>,
## #   density_predicted <lgl>, melting_point <dbl>,
## #   mp_predicted <lgl>, boiling_point <dbl>, bp_predicted <lgl>,
## #   heat_capacity <dbl>, electronegativity <dbl>, abundance <dbl>
…
#Prints any element which is Non-metal OR whose atomic number is less than 15
periodic_table[periodic_table$description != "Non-metal" | periodic_table$atomic_number <15,]

## # A tibble: 115 × 22
##    atomic_number symbol name      name_origin      group period block
##            <dbl> <chr>  <chr>     <chr>            <dbl>  <dbl> <chr>
##  1             1 H      Hydrogen  composed of the…     1      1 s    
##  2             2 He     Helium    the Greek helio…    18      1 s    
##  3             3 Li     Lithium   the Greek litho…     1      2 s    
##  4             4 Be     Beryllium beryl, a mineral     2      2 s    
##  5             5 B      Boron     borax, a mineral    13      2 p    
##  6             6 C      Carbon    the Latin carbo…    14      2 p    
##  7             7 N      Nitrogen  the Greek nitro…    15      2 p    
##  8             8 O      Oxygen    from the Greek …    16      2 p    
##  9             9 F      Fluorine  the Latin fluer…    17      2 p    
## 10            10 Ne     Neon      the Greek neos,…    18      2 p    
## # … with 105 more rows, and 15 more variables: state_at_stp <chr>,
## #   occurrence <chr>, description <chr>, atomic_weight <dbl>,
## #   aw_uncertainty <dbl>, any_stable_nuclides <chr>, density <dbl>,
## #   density_predicted <lgl>, melting_point <dbl>,
## #   mp_predicted <lgl>, boiling_point <dbl>, bp_predicted <lgl>,
## #   heat_capacity <dbl>, electronegativity <dbl>, abundance <dbl>
…
