Chapter 5 Selecting and Filtering Data | 📊 TJ RS1 with R
…
“Let’s eat Grandma!” vs. “Let’s eat, Grandma!”

The comma is very important. Let’s look at some examples:

#Returns all of column 2:
periodic_table[2]

## # A tibble: 118 × 1
##    symbol
##    <chr> 
##  1 H     
##  2 He    
##  3 Li    
##  4 Be    
##  5 B     
##  6 C     
##  7 N     
##  8 O     
##  9 F     
## 10 Ne    
## # … with 108 more rows
…
## # A tibble: 1 × 22
##   atomic_number symbol name   name_origin            group period block
##           <dbl> <chr>  <chr>  <chr>                  <dbl>  <dbl> <chr>
## 1             2 He     Helium the Greek helios, 'su…    18      1 s    
## # … with 15 more variables: state_at_stp <chr>, occurrence <chr>,
## #   description <chr>, atomic_weight <dbl>, aw_uncertainty <dbl>,
## #   any_stable_nuclides <chr>, density <dbl>, density_predicted <lgl>,
## #   melting_point <dbl>, mp_predicted <lgl>, boiling_point <dbl>,
## #   bp_predicted <lgl>, heat_capacity <dbl>, electronegativity <dbl>,
## #   abundance <dbl>

#Returns all of column 2:
periodic_table[ ,2]

## # A tibble: 118 × 1
##    symbol
##    <chr> 
##  1 H     
##  2 He    
##  3 Li    
##  4 Be    
##  5 B     
##  6 C     
##  7 N     
##  8 O     
##  9 F     
## 10 Ne    
## # … with 108 more rows
…
