Wrangling Data | 📊 TJ RS1 with R
…
When it first gets loaded, I want certain columns to be treated as numeric vectors. The code is below.

library(readr)
anime <- read_csv("resources/data/anime.csv", col_types = cols(MAL_ID = col_number(), Score = col_number(), Episodes = col_number(), Popularity = col_number(), Members = col_number(), Favorites = col_number(), Watching = col_number(), Completed = col_number(), `On-Hold` = col_number(), Dropped = col_number(),`Plan to Watch` = col_number(), `Score-10` = col_number(), `Score-9` = col_number(), `Score-8` = col_number(), `Score-7` = col_number(), `Score-6` = col_number(), `Score-5` = col_number(), `Score-4` = col_number(), `Score-3` = col_number(), `Score-2` = col_number(),`Score-1` = col_number()))

## Warning: One or more parsing issues, see `problems()` for details

Data Wrangling

Examine any problems with the dataset. Notice that there are a lot of random places where we treated a column as a numeric vector, but the actual data value was “Unknown” instead. R will convert the value to “NA,” which is fine with us.

problems(anime)

## # A tibble: 16,570 × 5
##      row   col expected actual  file                                                   
##    <int> <int> <chr>    <chr>   <chr>                                                  
##  1    13     8 a number Unknown /Users/kaisamng/Github/RGuides/resources/data/anime.csv
##  2   213     8 a number Unknown /Users/kaisamng/Github/RGuides/resources/data/anime.csv
##  3   873     8 a number Unknown /Users/kaisamng/Github/RGuides/resources/data/anime.csv
##  4  1095     8 a number Unknown /Users/kaisamng/Github/RGuides/resources/data/anime.csv
##  5  1267    33 a number Unknown /Users/kaisamng/Github/RGuides/resources/data/anime.csv
##  6  1406     3 a number Unknown /Users/kaisamng/Github/RGuides/resources/data/anime.csv
##  7  1506     3 a number Unknown /Users/kaisamng/Github/RGuides/resources/data/anime.csv
##  8  1580     3 a number Unknown /Users/kaisamng/Github/RGuides/resources/data/anime.csv
##  9  1580    34 a number Unknown /Users/kaisamng/Github/RGuides/resources/data/anime.csv
## 10  1701     3 a number Unknown /Users/kaisamng/Github/RGuides/resources/data/anime.csv
## # … with 16,560 more rows
…
